^C:\USERS\TRANSFET\DOCUMENTS\VISUAL STUDIO 2015\PROJECTS\4VALSZTHATO\4VALSZTHATO\MAIN.CPP|C:\USERS\TRANSFET\DOCUMENTS\VISUAL STUDIO 2015\PROJECTS\4VALSZTHATO\4VALSZTHATO\MATRIX.CPP|C:\USERS\TRANSFET\DOCUMENTS\VISUAL STUDIO 2015\PROJECTS\4VALSZTHATO\4VALSZTHATO\MATRIXEXCEPTION.CPP|C:\USERS\TRANSFET\DOCUMENTS\VISUAL STUDIO 2015\PROJECTS\4VALSZTHATO\4VALSZTHATO\POINT.CPP
C:\USERS\TRANSFET\DOCUMENTS\VISUAL STUDIO 2015\PROJECTS\4VALSZTHATO\4VALSZTHATO\DEBUG\VC140.PDB
C:\USERS\TRANSFET\DOCUMENTS\VISUAL STUDIO 2015\PROJECTS\4VALSZTHATO\4VALSZTHATO\DEBUG\VC140.IDB
C:\USERS\TRANSFET\DOCUMENTS\VISUAL STUDIO 2015\PROJECTS\4VALSZTHATO\4VALSZTHATO\DEBUG\MAIN.OBJ
C:\USERS\TRANSFET\DOCUMENTS\VISUAL STUDIO 2015\PROJECTS\4VALSZTHATO\4VALSZTHATO\DEBUG\MATRIX.OBJ
C:\USERS\TRANSFET\DOCUMENTS\VISUAL STUDIO 2015\PROJECTS\4VALSZTHATO\4VALSZTHATO\DEBUG\MATRIXEXCEPTION.OBJ
C:\USERS\TRANSFET\DOCUMENTS\VISUAL STUDIO 2015\PROJECTS\4VALSZTHATO\4VALSZTHATO\DEBUG\POINT.OBJ
^C:\USERS\TRANSFET\DOCUMENTS\VISUAL STUDIO 2015\PROJECTS\4VALSZTHATO\4VALSZTHATO\MAIN.CPP
C:\USERS\TRANSFET\DOCUMENTS\VISUAL STUDIO 2015\PROJECTS\4VALSZTHATO\4VALSZTHATO\DEBUG\VC140.PDB
C:\USERS\TRANSFET\DOCUMENTS\VISUAL STUDIO 2015\PROJECTS\4VALSZTHATO\4VALSZTHATO\DEBUG\VC140.IDB
C:\USERS\TRANSFET\DOCUMENTS\VISUAL STUDIO 2015\PROJECTS\4VALSZTHATO\4VALSZTHATO\DEBUG\MAIN.OBJ
^C:\USERS\TRANSFET\DOCUMENTS\VISUAL STUDIO 2015\PROJECTS\4VALSZTHATO\4VALSZTHATO\MATRIX.CPP
C:\USERS\TRANSFET\DOCUMENTS\VISUAL STUDIO 2015\PROJECTS\4VALSZTHATO\4VALSZTHATO\DEBUG\VC140.PDB
^C:\USERS\TRANSFET\DOCUMENTS\VISUAL STUDIO 2015\PROJECTS\4VALSZTHATO\4VALSZTHATO\MATRIXEXCEPTION.CPP
C:\USERS\TRANSFET\DOCUMENTS\VISUAL STUDIO 2015\PROJECTS\4VALSZTHATO\4VALSZTHATO\DEBUG\VC140.PDB
^C:\USERS\TRANSFET\DOCUMENTS\VISUAL STUDIO 2015\PROJECTS\4VALSZTHATO\4VALSZTHATO\POINT.CPP
C:\USERS\TRANSFET\DOCUMENTS\VISUAL STUDIO 2015\PROJECTS\4VALSZTHATO\4VALSZTHATO\DEBUG\VC140.PDB
